<?xml version="1.0" encoding="UTF-8" standalone="no"?>
<svg
   xmlns:dc="http://purl.org/dc/elements/1.1/"
   xmlns:cc="http://creativecommons.org/ns#"
   xmlns:rdf="http://www.w3.org/1999/02/22-rdf-syntax-ns#"
   xmlns:svg="http://www.w3.org/2000/svg"
   xmlns="http://www.w3.org/2000/svg"
   xmlns:sodipodi="http://sodipodi.sourceforge.net/DTD/sodipodi-0.dtd"
   xmlns:inkscape="http://www.inkscape.org/namespaces/inkscape"
   sodipodi:docname="burger3.svg"
   inkscape:version="1.0 (4035a4fb49, 2020-05-01)"
   id="svg1431"
   version="1.1"
   viewBox="0 0 7.5150132 31.433905"
   height="31.433905mm"
   width="7.5150132mm">
  <defs
     id="defs1426">
    <filter
       height="1.0085126"
       y="-0.004256322"
       width="1.0466928"
       x="-0.023346407"
       id="filter2006"
       style="color-interpolation-filters:sRGB"
       inkscape:collect="always">
      <feGaussianBlur
         id="feGaussianBlur2008"
         stdDeviation="0.038028605"
         inkscape:collect="always" />
    </filter>
    <filter
       height="1.0576"
       y="-0.028800001"
       width="1.0082285"
       x="-0.0041142856"
       id="filter2010"
       style="color-interpolation-filters:sRGB"
       inkscape:collect="always">
      <feGaussianBlur
         id="feGaussianBlur2012"
         stdDeviation="0.0063499999"
         inkscape:collect="always" />
    </filter>
    <filter
       height="1.0576"
       y="-0.028800001"
       width="1.0082285"
       x="-0.0041142856"
       id="filter2014"
       style="color-interpolation-filters:sRGB"
       inkscape:collect="always">
      <feGaussianBlur
         id="feGaussianBlur2016"
         stdDeviation="0.0063499999"
         inkscape:collect="always" />
    </filter>
    <filter
       height="1.0144"
       y="-0.0071999999"
       width="1.0144"
       x="-0.0071999999"
       id="filter2018"
       style="color-interpolation-filters:sRGB"
       inkscape:collect="always">
      <feGaussianBlur
         id="feGaussianBlur2020"
         stdDeviation="0.022225"
         inkscape:collect="always" />
    </filter>
  </defs>
  <sodipodi:namedview
     inkscape:current-layer="svg1431"
     inkscape:window-maximized="1"
     inkscape:window-y="-9"
     inkscape:window-x="-9"
     inkscape:window-height="1001"
     inkscape:window-width="1920"
     showgrid="false"
     inkscape:document-rotation="0"
     inkscape:document-units="mm"
     inkscape:cy="56.539587"
     inkscape:cx="-4.614163"
     inkscape:zoom="3.959798"
     inkscape:pageshadow="2"
     inkscape:pageopacity="0.0"
     borderopacity="1.0"
     bordercolor="#666666"
     pagecolor="#ffffff"
     id="base" />
  <metadata
     id="metadata1429">
    <rdf:RDF>
      <cc:Work
         rdf:about="">
        <dc:format>image/svg+xml</dc:format>
        <dc:type
           rdf:resource="http://purl.org/dc/dcmitype/StillImage" />
        <dc:title></dc:title>
      </cc:Work>
    </rdf:RDF>
  </metadata>
  <circle
     style="stroke-width:0.264583;filter:url(#filter2018)"
     id="circle2"
     fill="#333333"
     r="3.7041667"
     cy="3.7575066"
     cx="3.7575066" />
  <rect
     style="stroke-width:0.264583;filter:url(#filter2014)"
     id="rect4"
     fill="#ffffff"
     rx="0.26458332"
     height="0.52916664"
     width="3.7041667"
     y="4.286674"
     x="1.9054177" />
  <rect
     style="stroke-width:0.264583;filter:url(#filter2010)"
     id="rect6"
     fill="#ffffff"
     rx="0.26458332"
     height="0.52916664"
     width="3.7041667"
     y="2.6991723"
     x="1.9054177" />
  <path
     style="stroke-width:0.264583;filter:url(#filter2006)"
     id="path8"
     fill="#ababab"
     d="m 3.5903086,29.174807 v 1.51413 h 1.594221 v 0.6537 h -3.762045 v -2.39003 h 0.527101 v 1.73633 h 1.118806 v -1.51413 z m 1.594221,-2.26344 c -0.05339,0.0276 -0.140388,0.0517 -0.260959,0.0724 0.208412,0.19982 0.312632,0.44443 0.312632,0.7338 0,0.28078 -0.08009,0.50988 -0.240295,0.68731 -0.160205,0.1774 -0.358299,0.26612 -0.59428,0.26612 -0.298001,0 -0.52623,-0.11023 -0.684716,-0.33073 -0.160178,-0.2222 -0.240294,-0.53914 -0.240294,-0.95083 v -0.385 h -0.183436 c -0.144701,0 -0.260112,0.0405 -0.346234,0.12145 -0.08787,0.081 -0.131789,0.20412 -0.131789,0.36949 0,0.14295 0.03617,0.26008 0.108532,0.35139 0.07062,0.0913 0.161052,0.13695 0.271304,0.13695 v 0.62785 c -0.153326,0 -0.29628,-0.0508 -0.428916,-0.15245 -0.134355,-0.10162 -0.239448,-0.23942 -0.315224,-0.41338 -0.0758,-0.17571 -0.113692,-0.37121 -0.113692,-0.58653 0,-0.32729 0.08268,-0.58828 0.248047,-0.7829 0.163645,-0.19466 0.394467,-0.29457 0.692468,-0.29972 h 1.260898 c 0.251486,0 0.452173,-0.0353 0.602033,-0.10594 h 0.04392 z m -0.452173,0.68991 c 0,-0.12404 -0.03014,-0.2403 -0.09043,-0.34883 -0.06027,-0.11025 -0.141234,-0.19293 -0.242887,-0.24805 h -0.527077 v 0.33848 c 0,0.23255 0.04048,0.40738 0.121417,0.52451 0.08096,0.11713 0.195528,0.17571 0.343668,0.17571 0.12057,0 0.217037,-0.0396 0.289375,-0.11885 0.07064,-0.081 0.105939,-0.18862 0.105939,-0.32297 z m -0.343641,-2.82671 -1.99988,-0.59171 v -0.64852 l 2.795694,0.96893 v 0.54517 l -2.795694,0.97669 v -0.65112 z m -0.627883,-1.47537 c -0.27387,0 -0.520197,-0.0543 -0.738955,-0.16277 -0.220503,-0.10853 -0.389308,-0.26098 -0.506439,-0.45736 -0.11885,-0.19634 -0.178276,-0.42201 -0.178276,-0.67693 0,-0.37725 0.121444,-0.683 0.364305,-0.91726 0.242887,-0.23601 0.565018,-0.36346 0.966364,-0.38243 l 0.147267,-0.003 c 0.275617,0 0.521944,0.0534 0.738981,0.16018 0.217038,0.10509 0.384996,0.25667 0.503846,0.45476 0.118851,0.19638 0.178277,0.42376 0.178277,0.68213 0,0.39446 -0.130916,0.71056 -0.392748,0.94826 -0.263551,0.23598 -0.614071,0.35399 -1.051613,0.35399 z m 0.05427,-0.62788 c 0.287682,0 0.513318,-0.0594 0.676963,-0.17828 0.161925,-0.11885 0.242888,-0.28421 0.242888,-0.49609 0,-0.21188 -0.08268,-0.37637 -0.248047,-0.4935 -0.165365,-0.11885 -0.407379,-0.17828 -0.72607,-0.17828 -0.282495,0 -0.506412,0.0611 -0.671777,0.18344 -0.165365,0.12057 -0.248047,0.28509 -0.248047,0.49353 0,0.20497 0.08181,0.36774 0.245454,0.48834 0.161925,0.12057 0.404813,0.18084 0.728636,0.18084 z m 1.095534,-4.19611 c 0.217064,0.18431 0.32557,0.44614 0.32557,0.78547 0,0.30319 -0.08871,0.53314 -0.266118,0.68988 -0.17743,0.15504 -0.434102,0.23257 -0.769991,0.23257 h -1.811258 v -0.62789 h 1.803506 c 0.354833,0 0.532262,-0.14726 0.532262,-0.44182 0,-0.30491 -0.109378,-0.51076 -0.328136,-0.61754 h -2.007632 v -0.62786 h 2.795694 v 0.59169 z m -1.94818,-2.71044 c -0.01379,0.0827 -0.02069,0.16796 -0.02069,0.2558 0,0.28768 0.110252,0.48146 0.330729,0.58137 h 1.912038 v 0.62785 h -2.795694 v -0.59944 l 0.312632,-0.0155 c -0.242861,-0.15158 -0.364305,-0.36174 -0.364305,-0.63045 0,-0.0896 0.01206,-0.16365 0.03617,-0.2222 z m 2.222077,-1.0646 v 0.62793 h -2.795694 v -0.62793 z m -3.52175,0.66669 c -0.09646,0 -0.176559,-0.0301 -0.240295,-0.0904 -0.06374,-0.0619 -0.0956,-0.14975 -0.0956,-0.26352 0,-0.11377 0.03187,-0.20161 0.0956,-0.26353 0.06373,-0.0622 0.143833,-0.0931 0.240295,-0.0931 0.09474,0 0.173979,0.031 0.237712,0.0931 0.06201,0.0619 0.09302,0.14976 0.09302,0.26353 0,0.11377 -0.031,0.20161 -0.09302,0.26352 -0.06373,0.0603 -0.14297,0.0904 -0.237712,0.0904 z m 0.04651,-2.13937 h 0.679548 v -0.49344 h 0.465084 v 0.49344 h 1.560619 c 0.106812,0 0.184335,-0.0206 0.232568,-0.0619 0.04649,-0.0431 0.06974,-0.11906 0.06974,-0.22754 0,-0.0722 -0.0086,-0.14552 -0.02582,-0.2196 h 0.485749 c 0.03961,0.14287 0.05943,0.28072 0.05943,0.41354 0,0.48207 -0.266118,0.72337 -0.798407,0.72337 h -1.583875 v 0.45985 h -0.465085 v -0.45985 h -0.679548 z m 3.526914,-2.20662 c 0,0.39793 -0.124883,0.72099 -0.37465,0.9689 -0.251486,0.24633 -0.585655,0.36963 -1.002532,0.36963 h -0.0775 c -0.279056,0 -0.527976,-0.0534 -0.746734,-0.16034 -0.220477,-0.10848 -0.391874,-0.26009 -0.514191,-0.45482 -0.122291,-0.19447 -0.183436,-0.41169 -0.183436,-0.65114 0,-0.38047 0.121444,-0.67416 0.364305,-0.88106 0.242887,-0.20823 0.586528,-0.3124804 1.030949,-0.3124804 h 0.253233 v 1.8266904 c 0.230796,-0.0191 0.413385,-0.0955 0.547766,-0.22992 0.134356,-0.136 0.201534,-0.30666 0.201534,-0.51171 0,-0.2876 -0.116285,-0.52176 -0.348827,-0.70273 l 0.322977,-0.3384004 c 0.167084,0.1119104 0.297153,0.2616704 0.390154,0.4495204 0.09131,0.18601 0.136949,0.39529 0.136949,0.62786 z m -2.395193,0.0749 c 0,0.17224 0.06027,0.31194 0.180869,0.41857 0.12057,0.10504 0.288528,0.17224 0.503846,0.20161 v -1.19618 h -0.04651 c -0.210159,0.0138 -0.368618,0.0696 -0.47543,0.16775 -0.108506,0.0982 -0.162772,0.23442 -0.162771,0.40825 z" />
</svg>
